ST2195 Coursework
…
avg_time_delay <- DelayTimes %>%
  group_by(timeclass)%>%
  summarise(ArrDelay=mean(o2.ArrDelay, na.rm=T),
            DepDelay=mean(o2.DepDelay, na.rm=T),
            NumOfFlights=n())%>%
  arrange(timeclass)

#Normalize by log transformation
avg_time_delay$logFlights <- log(avg_time_delay$NumOfFlights)
avg_time_delay

## # A tibble: 24 x 5
##    timeclass ArrDelay DepDelay NumOfFlights logFlights
##    <fct>        <dbl>    <dbl>        <int>      <dbl>
##  1 0            1.94     4.45           312      5.74 
##  2 1            1.94     3.14           159      5.07 
##  3 2            3.69     0.655           30      3.40 
##  4 3            1       -2.5              2      0.693
##  5 4           -1        8                2      0.693
##  6 5           -2.10     1.06          1721      7.45 
##  7 6           -0.510    0.932        12542      9.44 
##  8 7            0.414    2.02         13467      9.51 
##  9 8            1.59     3.12         14320      9.57 
## 10 9            2.37     3.71         13876      9.54 
## # ... with 14 more rows
…
We can also log transform the number of flights like we did before as the variable in the q2 table has a large variation, but the plot output does not offer better clarity and looks more clustered, so we will opt not to transform.

#Subset
q2 <- o2 %>%
  inner_join(planes2, by=c("TailNum"="tailnum"))%>%
  mutate(YearIssued=format(issue_date, "%Y"))%>%
  group_by(YearIssued)%>%
  summarise(DepDelay=mean(DepDelay, na.rm=T), 
            ArrDelay=mean(ArrDelay, na.rm=T), 
            Flights=n())
q2 <- subset(q2, YearIssued<=2005)

q2

## # A tibble: 25 x 4
##    YearIssued DepDelay ArrDelay Flights
##    <chr>         <dbl>    <dbl>   <int>
##  1 1976           1.41    -1.49      59
##  2 1977           8.95     4.62      37
##  3 1978           4.87     2.96      46
##  4 1984           9.25     7.21      89
##  5 1985           9.00     7.41    1348
##  6 1986           6.60     6.90    2639
##  7 1987           8.91     8.31    1884
##  8 1988           9.07     8.77    2676
##  9 1989           9.13     8.39    3157
## 10 1990           9.14     8.17    2580
## # ... with 15 more rows
…
#Subset by filtering
q3 <- o3 %>%
  mutate(Date=format(FlightDate, "%Y/%m"))%>%
  group_by(Date)%>%
  summarise(Flights=n())%>%
  arrange(Date)

q3$Date <- as.Date(paste(q3$Date,"/01", sep=""), format="%Y/%m/%d")
class(q3$Date)

## [1] "Date"

q3

## # A tibble: 24 x 2
##    Date       Flights
##    <date>       <int>
##  1 2004-01-01    8287
##  2 2004-02-01    7784
##  3 2004-03-01    8496
##  4 2004-04-01    8301
##  5 2004-05-01    8322
##  6 2004-06-01    8356
##  7 2004-07-01    8665
##  8 2004-08-01    8831
##  9 2004-09-01    8230
## 10 2004-10-01    8800
## # ... with 14 more rows
…
RDUdelays <- o4%>%
  group_by(Dest, Origin)%>%
  summarise(SumDelay=sum(LateAircraftDelay), Flights=n())%>%
  filter(Dest=="RDU")%>%
  arrange(desc(SumDelay))%>%
  top_n(9)

## `summarise()` has grouped output by 'Dest'. You can override using the `.groups` argument.
## Selecting by Flights

mostdelays

## # A tibble: 84 x 4
## # Groups:   Origin [84]
##    Origin airport                           SumDelay Flights
##    <chr>  <chr>                                <int>   <int>
##  1 ORD    Chicago O'Hare International         66242    1399
##  2 ATL    William B Hartsfield-Atlanta Intl    54572    1157
##  3 DFW    Dallas-Fort Worth International      29966     843
##  4 EWR    Newark Intl                          26699     494
##  5 LAS    McCarran International               25113     659
##  6 PHL    Philadelphia Intl                    21930     459
##  7 IAD    Washington Dulles International      19900     361
##  8 DEN    Denver Intl                          15965     392
##  9 LAX    Los Angeles International            15595     452
## 10 LGA    LaGuardia                            14596     336
## # ... with 74 more rows
…
